    0     1
    0     0
    0     0
    0     1
    0     1
    1     1
    1     2
    1     2
    2     2
    3     3
    2     3
    3     3
    4     5
    5     5
   10     5
   10     5
   10     6
   11     7
   14     8
   14     9
   19    12
   20    14
   28    19
   30    21
   39    28
   46    33
   63    44
   72    45
   91    62
  109    67
  146    83
  175    83
  215   112
  282   120
  401   158
  500   161
  607   247
  793   331
  985   529
 1113   704
 1178  1277
 1450  1817
 1672  2543
 1833  2735
 1841  3616
 2074  3687
 2165  3745
 2104  3068
 1932  3062
 1950  2385
 1801  1835
 1576  1205
 1326   931
 1218   592
 1045   420
  830   293
  675   254
  605   192
  521   164
  380   130
  328   118
  275    91
  222    75
  167    60
  145    54
  119    44
   99    40
   76    36
   61    36
   54    30
   57    28
   43    23
   38    21
   30    16
   21    14
   20    11
   14    10
   12     8
    9     7
    8     5
    7     5
    7     4
    7     3
    6     3
    4     3
    4     3
    8     3
    5     2
    4     2
    4     2
    2     2
    2     1
    1     1
    1     1
    1     1
    0     0
    0     0
    0     0
    0     0
    0     0
    0     0
