    0     1
    0     0
    0     0
    1     1
    1     1
    1     1
    1     1
    2     1
    4     2
    5     2
    6     3
    8     3
   10     4
   11     5
   15     6
   16     6
   15     9
   15    11
   17    14
   17    15
   23    23
   21    28
   31    38
   30    38
   36    56
   41    66
   54    91
   59    85
   74   122
   87   124
  117   144
  135   120
  162   154
  205   146
  282   169
  347   150
  415   209
  550   249
  697   350
  811   412
  869   665
 1071   865
 1230  1150
 1339  1224
 1350  1647
 1528  1772
 1620  1953
 1569  1771
 1423  1993
 1433  1815
 1299  1674
 1104  1330
  926  1229
  851   917
  719   706
  569   506
  457   430
  404   308
  334   246
  242   188
  200   173
  167   140
  135   120
  106   100
   93    90
   79    72
   68    60
   55    54
   48    49
   43    42
   35    36
   35    29
   42    25
   25    19
   22    15
   21    12
   13    10
   11     7
    8     6
    7     5
    6     4
    6     3
    6     3
    5     2
    4     2
    3     2
    3     2
    2     1
    3     2
    4     1
    3     1
    2     1
    1     1
    1     1
    1     1
    0     0
    0     0
    0     0
    0     0
    0     0
    0     0
