    4     4
    2     2
    3     3
    3     3
    4     4
    5     5
    6     6
    8     6
   12     8
   16     9
   21    10
   25    10
   30    13
   36    13
   45    15
   51    15
   57    19
   67    20
   80    24
   94    25
  109    34
  122    38
  145    48
  168    51
  192    70
  221    81
  259   113
  291   119
  324   181
  374   215
  432   292
  486   306
  526   454
  600   519
  683   687
  744   700
  785  1008
  868  1186
  920  1493
  948  1542
  954  2002
 1006  2108
 1037  2244
 1065  2087
 1054  2332
 1110  2185
 1133  2151
 1145  1848
 1108  1938
 1143  1701
 1117  1557
 1094  1283
 1032  1220
 1037   976
 1014   832
  948   641
  862   588
  862   462
  840   400
  738   313
  688   291
  634   229
  567   186
  471   144
  418   126
  378    95
  333    79
  274    66
  237    61
  204    53
  171    48
  137    41
  118    39
   96    32
   79    28
   64    24
   51    22
   42    19
   38    17
   32    14
   27    14
   24    11
   23    11
   20     9
   17    10
   14     8
   13     8
   12     7
   12     7
   12     6
   10     5
    8     4
    6     5
    6     4
    5     3
    4     3
    3     3
    3     2
    2     2
    2     2
    2     2
